{
  "packages": {
    "linux-x64": [
      {
        "name": "abc-interpreter",
        "version": "1.5.3"
      },
      {
        "name": "asyncio",
        "version": "3.3.3"
      },
      {
        "name": "base",
        "version": "3.0.0"
      },
      {
        "name": "base-clm",
        "version": "1.6.0"
      },
      {
        "name": "base-code-generator",
        "version": "2.4.0"
      },
      {
        "name": "base-compiler",
        "version": "4.0.1"
      },
      {
        "name": "base-lib",
        "version": "2.11.0"
      },
      {
        "name": "base-rts",
        "version": "3.0.2"
      },
      {
        "name": "base-stdenv",
        "version": "2.1.1"
      },
      {
        "name": "base64",
        "version": "1.0.5"
      },
      {
        "name": "category-theory",
        "version": "1.1.1"
      },
      {
        "name": "containers",
        "version": "2.3.0"
      },
      {
        "name": "csv",
        "version": "1.0.2"
      },
      {
        "name": "gast",
        "version": "0.4.20"
      },
      {
        "name": "gencons",
        "version": "1.0.1"
      },
      {
        "name": "generic-hash",
        "version": "1.0.3"
      },
      {
        "name": "generic-print",
        "version": "3.2.1"
      },
      {
        "name": "gentype",
        "version": "3.1.0"
      },
      {
        "name": "getopt",
        "version": "1.0.2"
      },
      {
        "name": "graph-copy",
        "version": "3.0.4"
      },
      {
        "name": "hash",
        "version": "1.0.2"
      },
      {
        "name": "html",
        "version": "2.1.1"
      },
      {
        "name": "http",
        "version": "1.1.1"
      },
      {
        "name": "integer",
        "version": "1.0.3"
      },
      {
        "name": "itasks",
        "version": "0.16.0"
      },
      {
        "name": "itasks-mqttclient",
        "version": "1.0.7"
      },
      {
        "name": "itasks-serial",
        "version": "0.1.4"
      },
      {
        "name": "json",
        "version": "3.1.1"
      },
      {
        "name": "language",
        "version": "1.0.2"
      },
      {
        "name": "linux",
        "version": "1.0.2"
      },
      {
        "name": "options",
        "version": "1.0.3"
      },
      {
        "name": "parser-combinators",
        "version": "1.1.1"
      },
      {
        "name": "posix",
        "version": "1.2.0"
      },
      {
        "name": "random",
        "version": "1.0.1"
      },
      {
        "name": "serial",
        "version": "0.1.6"
      },
      {
        "name": "syscall",
        "version": "1.0.3"
      },
      {
        "name": "system",
        "version": "2.2.3"
      },
      {
        "name": "test",
        "version": "1.0.4"
      },
      {
        "name": "text",
        "version": "2.0.1"
      }
    ],
    "windows-x64": [
      {
        "name": "abc-interpreter",
        "version": "1.2.3"
      },
      {
        "name": "argenv",
        "version": "1.0.3"
      },
      {
        "name": "base",
        "version": "1.0.0"
      },
      {
        "name": "base-clm",
        "version": "1.5.2"
      },
      {
        "name": "base-code-generator",
        "version": "1.0.0"
      },
      {
        "name": "base-compiler",
        "version": "2.0.1"
      },
      {
        "name": "base-compiler-itasks",
        "version": "2.0.1"
      },
      {
        "name": "base-linker",
        "version": "1.0.2"
      },
      {
        "name": "base-rts",
        "version": "1.1.0"
      },
      {
        "name": "base-stdenv",
        "version": "1.0.1"
      },
      {
        "name": "clean-platform",
        "version": "0.3.44"
      },
      {
        "name": "gast",
        "version": "0.2.3"
      },
      {
        "name": "gentype",
        "version": "2.1.2"
      },
      {
        "name": "graph-copy",
        "version": "2.0.2"
      },
      {
        "name": "itasks",
        "version": "0.7.3"
      },
      {
        "name": "itasks-mqttclient",
        "version": "1.0.3"
      },
      {
        "name": "itasks-serial",
        "version": "0.1.1"
      },
      {
        "name": "lib-compiler",
        "version": "3.0.2"
      },
      {
        "name": "serial",
        "version": "0.1.2"
      },
      {
        "name": "tcpip",
        "version": "2.0.1"
      }
    ]
  }
}
